<?xml version="1.0" encoding="UTF-8" standalone="no"?>
<!-- Created with Inkscape (http://www.inkscape.org/) -->

<svg
   xmlns:dc="http://purl.org/dc/elements/1.1/"
   xmlns:cc="http://creativecommons.org/ns#"
   xmlns:rdf="http://www.w3.org/1999/02/22-rdf-syntax-ns#"
   xmlns:svg="http://www.w3.org/2000/svg"
   xmlns="http://www.w3.org/2000/svg"
   xmlns:sodipodi="http://sodipodi.sourceforge.net/DTD/sodipodi-0.dtd"
   xmlns:inkscape="http://www.inkscape.org/namespaces/inkscape"
   width="100mm"
   height="100mm"
   viewBox="0 0 100 100"
   version="1.1"
   id="svg842"
   inkscape:version="0.92.2 2405546, 2018-03-11"
   sodipodi:docname="favicon.svg">
  <defs
     id="defs836" />
  <sodipodi:namedview
     id="base"
     pagecolor="#ffffff"
     bordercolor="#666666"
     borderopacity="1.0"
     inkscape:pageopacity="0.0"
     inkscape:pageshadow="2"
     inkscape:zoom="0.24748737"
     inkscape:cx="155.71429"
     inkscape:cy="160"
     inkscape:document-units="mm"
     inkscape:current-layer="layer1"
     showgrid="false"
     inkscape:window-width="1600"
     inkscape:window-height="848"
     inkscape:window-x="0"
     inkscape:window-y="28"
     inkscape:window-maximized="1" />
  <metadata
     id="metadata839">
    <rdf:RDF>
      <cc:Work
         rdf:about="">
        <dc:format>image/svg+xml</dc:format>
        <dc:type
           rdf:resource="http://purl.org/dc/dcmitype/StillImage" />
        <dc:title></dc:title>
      </cc:Work>
    </rdf:RDF>
  </metadata>
  <g
     inkscape:label="Layer 1"
     inkscape:groupmode="layer"
     id="layer1"
     transform="translate(0,-197)">
    <g
       id="g2049"
       inkscape:label="logo"
       transform="matrix(0.85627738,0,0,0.90552484,-11.169886,156.64681)">
      <path
         inkscape:label="d4"
         sodipodi:nodetypes="ccccccsc"
         inkscape:connector-curvature="0"
         id="path1988"
         transform="scale(0.26458333)"
         d="M 203.15039,470.70117 220,502.51953 v 65 c 30.09952,12.16487 64.6395,14.31524 100.66602,0 v -65 l 16.52148,-31.19726 c -18.65462,3.90497 -41.23845,6.19531 -65.58594,6.19531 -25.60903,0 -49.26561,-2.53447 -68.45117,-6.81641 z"
         style="display:inline;opacity:1;vector-effect:none;fill:#000000;fill-opacity:1;stroke:none;stroke-width:0.11338583;stroke-linecap:butt;stroke-linejoin:miter;stroke-miterlimit:4;stroke-dasharray:none;stroke-dashoffset:0;stroke-opacity:1" />
      <path
         inkscape:label="e3"
         inkscape:connector-curvature="0"
         id="path2026"
         transform="scale(0.26458333)"
         d="m 153.52148,376.98242 41.82813,78.98828 c 20.1859,5.19195 46.261,8.32618 74.75195,8.32618 28.74719,0 55.03103,-3.19277 75.29102,-8.46876 l 41.55469,-78.46874 c -28.98138,8.51907 -70.24152,13.85156 -116.06055,13.85156 -46.50016,0 -88.32605,-5.48692 -117.36524,-14.22852 z"
         style="display:inline;opacity:1;vector-effect:none;fill:#71b20f;fill-opacity:1;stroke:none;stroke-width:0.11338583;stroke-linecap:butt;stroke-linejoin:miter;stroke-miterlimit:4;stroke-dasharray:none;stroke-dashoffset:0;stroke-opacity:1" />
      <path
         sodipodi:nodetypes="ccscccc"
         sodipodi:insensitive="true"
         inkscape:label="e2"
         inkscape:connector-curvature="0"
         id="path2008"
         transform="scale(0.26458333)"
         d="m 94.271484,265.09766 49.800786,94.04101 c 29.09823,9.9681 73.79755,16.35938 123.95898,16.35938 53.57307,0 100.9118,-7.29034 129.66797,-18.44336 l 46.52148,-87.84571 c -35.7926,14.6852 -100.53535,23.69151 -170.47656,23.71485 -76.79801,-0.0219 -146.67162,-10.85542 -179.472656,-27.82617 z"
         style="display:inline;opacity:1;fill:#000000;fill-opacity:1;stroke:none;stroke-width:0.09566521;stroke-linecap:round;stroke-linejoin:round;stroke-miterlimit:4;stroke-dasharray:none;stroke-dashoffset:0;stroke-opacity:1;paint-order:markers fill stroke" />
      <path
         sodipodi:insensitive="true"
         style="display:inline;opacity:1;fill:#000000;fill-opacity:1;stroke:#89af38;stroke-width:0.02989792;stroke-linecap:round;stroke-linejoin:round;stroke-miterlimit:4;stroke-dasharray:none;stroke-dashoffset:0;stroke-opacity:1;paint-order:markers fill stroke"
         d="M 124.06783,60.682667 A 52.584476,12.851191 0 0 1 71.48336,73.533858 52.584476,12.851191 0 0 1 18.898883,60.682667 52.584476,12.851191 0 0 1 71.48336,47.831477 a 52.584476,12.851191 0 0 1 52.58447,12.85119 z"
         id="path2004"
         inkscape:connector-curvature="0"
         inkscape:label="e1" />
    </g>
  </g>
</svg>
